<svg class="flow__icon" xmlns="http://www.w3.org/2000/svg" width="490" height="432">
  <path fill="#FFF" d="M52.7 105.75c29.1 0 52.7-23.7 52.7-52.7 0-29-23.6-52.8-52.7-52.8S0 23.95 0 52.95c0 29 23.7 52.8 52.7 52.8zm0-81c15.6 0 28.2 12.7 28.2 28.2s-12.7 28.2-28.2 28.2-28.2-12.7-28.2-28.2 12.7-28.2 28.2-28.2zm0 243.8c29.1 0 52.7-23.7 52.7-52.7 0-29-23.6-52.7-52.7-52.7S0 186.75 0 215.85s23.7 52.7 52.7 52.7zm0-80.9c15.6 0 28.2 12.7 28.2 28.2s-12.7 28.2-28.2 28.2-28.2-12.6-28.2-28.2 12.7-28.2 28.2-28.2zm0 243.8c29.1 0 52.7-23.7 52.7-52.7 0-29.1-23.7-52.7-52.7-52.7-29 0-52.7 23.7-52.7 52.7 0 29 23.7 52.7 52.7 52.7zm0-81c15.6 0 28.2 12.7 28.2 28.2 0 15.6-12.7 28.2-28.2 28.2s-28.2-12.7-28.2-28.2 12.7-28.2 28.2-28.2zm123.2-285.2h301.5c6.8 0 12.3-5.5 12.3-12.3 0-6.8-5.5-12.3-12.3-12.3H175.9c-6.8 0-12.3 5.5-12.3 12.3 0 6.8 5.5 12.3 12.3 12.3zm0 162.9h301.5c6.8 0 12.3-5.5 12.3-12.3 0-6.8-5.5-12.3-12.3-12.3H175.9c-6.8 0-12.3 5.5-12.3 12.3 0 6.8 5.5 12.3 12.3 12.3zm0 162.8h301.5c6.8 0 12.3-5.5 12.3-12.3 0-6.8-5.5-12.3-12.3-12.3H175.9c-6.8 0-12.3 5.5-12.3 12.3 0 6.8 5.5 12.3 12.3 12.3z"/>
</svg>
