<svg class="flow__icon" xmlns="http://www.w3.org/2000/svg" width="316" height="512">
  <circle fill="#FFF" cx="157.984" cy="492" r="20"/>
  <path fill="#FFF" d="M314.979 155.775C314.321 69.765 244.147 0 157.984 0c-86.57 0-157 70.43-157 157 0 11.046 8.954 20 20 20s20-8.954 20-20c0-64.514 52.486-117 117-117 64.514 0 117 52.486 117 117 0 .356.009.71.028 1.062a116.936 116.936 0 0 1-71.12 106.661c-40.038 17.094-65.908 56.675-65.908 100.839V412c0 11.046 8.954 20 20 20s20-8.954 20-20v-46.438c0-28.117 16.334-53.258 41.614-64.051a156.884 156.884 0 0 0 95.418-144.516c0-.41-.013-.816-.037-1.22z"/>
</svg>
